[{"id":1,"first_name":"Elmore","last_name":"Twidell","email":"etwidell0@deviantart.com","password":"oxubJIE"},
{"id":2,"first_name":"Loree","last_name":"Kantor","email":"lkantor1@usa.gov","password":"AUU89ESdVS07"},
{"id":3,"first_name":"Rosie","last_name":"Silkstone","email":"rsilkstone2@uol.com.br","password":"fpA1V0"},
{"id":4,"first_name":"Randie","last_name":"MacDonough","email":"rmacdonough3@goodreads.com","password":"qqyIMKHz3Dn"},
{"id":5,"first_name":"Lowrance","last_name":"Romans","email":"lromans4@apple.com","password":"1POZG7"},
{"id":6,"first_name":"Berkie","last_name":"Crayton","email":"bcrayton5@cocolog-nifty.com","password":"xhaoyxn9"},
{"id":7,"first_name":"Raimundo","last_name":"Solomon","email":"rsolomon6@nyu.edu","password":"HCAjIbrVXlkw"},
{"id":8,"first_name":"Allix","last_name":"Varrow","email":"avarrow7@cisco.com","password":"PfWsg6"},
{"id":9,"first_name":"Renae","last_name":"Naptine","email":"rnaptine8@cnbc.com","password":"Wa1NR5BDF"},
{"id":10,"first_name":"Donny","last_name":"Capenor","email":"dcapenor9@163.com","password":"ZlGDwurwb"},
{"id":11,"first_name":"Lamont","last_name":"Eustanch","email":"leustancha@taobao.com","password":"4g0MO3TgLds"},
{"id":12,"first_name":"Mickie","last_name":"Warrick","email":"mwarrickb@drupal.org","password":"gmauzKoMCZN"},
{"id":13,"first_name":"Winne","last_name":"Parrington","email":"wparringtonc@printfriendly.com","password":"gZjbnzZh"},
{"id":14,"first_name":"Alexei","last_name":"Crees","email":"acreesd@umn.edu","password":"ctp61AX"},
{"id":15,"first_name":"Linnie","last_name":"Shewery","email":"lshewerye@dedecms.com","password":"TVRwy79S"},
{"id":16,"first_name":"Gilles","last_name":"McGready","email":"gmcgreadyf@wikispaces.com","password":"2KCa0n"},
{"id":17,"first_name":"Wendel","last_name":"Dunsmore","email":"wdunsmoreg@omniture.com","password":"RJs2sAUCovhA"},
{"id":18,"first_name":"Marlie","last_name":"Millington","email":"mmillingtonh@barnesandnoble.com","password":"L4LRVsBILX4l"},
{"id":19,"first_name":"Jessee","last_name":"Fenny","email":"jfennyi@shareasale.com","password":"9oJq7hM39X"},
{"id":20,"first_name":"Etti","last_name":"Balcock","email":"ebalcockj@dion.ne.jp","password":"6FhM7XKXcL"}]